DAY 3: Data analysis (R) | DataFest2021 Project Example
…
Descriptives

It’s always a good idea to start data analysis by looking at some descriptive statistics of the sample data. Here, we can inspect the demographic data we accessed through the Census API:

US_cases_long_demogr_week %>% 
  group_by(state) %>% 
  summarize_at(vars(percent_age65over, percent_female, 
                    percent_white, percent_black), .funs = mean) %>% 
  mutate_if(is.numeric, round, 1)

## # A tibble: 51 x 5
##    state             percent_age65ov… percent_female percent_white percent_black
##    <chr>                        <dbl>          <dbl>         <dbl>         <dbl>
##  1 Alabama                       17.3           51.7          69.1          26.8
##  2 Alaska                        12.5           47.9          65.3           3.7
##  3 Arizona                       18             50.3          82.6           5.2
##  4 Arkansas                      17.4           50.9          79            15.7
##  5 California                    14.8           50.3          71.9           6.5
##  6 Colorado                      14.6           49.6          86.9           4.6
##  7 Connecticut                   17.7           51.2          79.7          12.2
##  8 Delaware                      19.4           51.7          69.2          23.2
##  9 District of Colu…             12.4           52.6          46            46  
## 10 Florida                       20.9           51.1          77.3          16.9
## # … with 41 more rows
…
